…
``` r
# Load the data into R
crep_records_raw <- occ_download_import(crep_records_path)
```

### Inspect the dataset

Let’s take a look at the dataset.

``` r
crep_records_raw
```

    # A tibble: 20,101 × 50
          gbifID datasetKey       occurrenceID kingdom phylum class order family genus species infraspecificEpithet taxonRank scientificName verbatimScientificName verbatimScientificNa…¹ countryCode locality stateProvince occurrenceStatus individualCount publishingOrgKey decimalLatitude decimalLongitude
     *   <int64> <chr>            <chr>        <chr>   <chr>  <chr> <chr> <chr>  <chr> <chr>   <chr>                <chr>     <chr>          <chr>                  <chr>                  <chr>       <chr>    <chr>         <chr>                      <int> <chr>                      <dbl>            <dbl>
     1 991749096 bf2a4bf0-5f31-1… http://data… Plantae Trach… Poly… Hyme… Hymen… Crep… Crepid… ""                   SPECIES   Crepidomanes … Crepidomanes late-ala… ""                     TH          "Doi Su… Chiang Mai    PRESENT                       NA 98e934b0-5f31-1…           18.8              98.9
     2 991749040 bf2a4bf0-5f31-1… http://data… Plantae Trach… Poly… Hyme… Hymen… Crep… Crepid… ""                   SPECIES   Crepidomanes … Crepidomanes bipuncta… ""                     TH          "Khao B… Phatthalung   PRESENT                       NA 98e934b0-5f31-1…            7.25            100. 
     3 991748916 bf2a4bf0-5f31-1… http://data… Plantae Trach… Poly… Hyme… Hymen… Crep… Crepid… ""                   SPECIES   Crepidomanes … Crepidomanes bipuncta… ""                     TH          "Than P… Satun         PRESENT                       NA 98e934b0-5f31-1…            7.11             99.8
     4 991748915 bf2a4bf0-5f31-1… http://data… Plantae Trach… Poly… Hyme… Hymen… Crep… Crepid… ""                   SPECIES   Crepidomanes … Crepidomanes bipuncta… ""                     TH          "Huay Y… Prachuap Khi… PRESENT                       NA 98e934b0-5f31-1…           11.7              99.6
     5 991748307 bf2a4bf0-5f31-1… http://data… Plantae Trach… Poly… Hyme… Hymen… Crep… Crepid… ""                   SPECIES   Crepidomanes … Crepidomanes bipuncta… ""                     TH          "Thale … Satun         PRESENT                       NA 98e934b0-5f31-1…            6.71            100. 
     6 991747993 bf2a4bf0-5f31-1… http://data… Plantae Trach… Poly… Hyme… Hymen… Crep… Crepid… ""                   SPECIES   Crepidomanes … Crepidomanes late-ala… ""                     TH          ""       Chiang Mai    PRESENT                       NA 98e934b0-5f31-1…           NA                NA  
     7 991747797 bf2a4bf0-5f31-1… http://data… Plantae Trach… Poly… Hyme… Hymen… Crep… Crepid… ""                   SPECIES   Crepidomanes … Crepidomanes bipuncta… ""                     TH          "Khao L… Nakhon Si Th… PRESENT                       NA 98e934b0-5f31-1…            8.72             99.7
     8 991747708 bf2a4bf0-5f31-1… http://data… Plantae Trach… Poly… Hyme… Hymen… Crep… Crepid… ""                   SPECIES   Crepidomanes … Crepidomanes latemarg… ""                     TH          "Kaeng … Phetchaburi   PRESENT                       NA 98e934b0-5f31-1…           12.2              99.6
     9 991747526 bf2a4bf0-5f31-1… http://data… Plantae Trach… Poly… Hyme… Hymen… Crep… Crepid… ""                   SPECIES   Crepidomanes … Crepidomanes minutum … ""                     TH          "Along … Yala          PRESENT                       NA 98e934b0-5f31-1…            6.85            102. 
    10 991747268 bf2a4bf0-5f31-1… http://data… Plantae Trach… Poly… Hyme… Hymen… Crep… Crepid… ""                   SPECIES   Crepidomanes … Crepidomanes minutum … ""                     TH          "Namtok… Prachuap Khi… PRESENT                       NA 98e934b0-5f31-1…           11.6              99.6
    # ℹ 20,091 more rows
    # ℹ abbreviated name: ¹​verbatimScientificNameAuthorship
    # ℹ 27 more variables: coordinateUncertaintyInMeters <dbl>, coordinatePrecision <dbl>, elevation <dbl>, elevationAccuracy <dbl>, depth <dbl>, depthAccuracy <lgl>, eventDate <dttm>, day <int>, month <int>, year <int>, taxonKey <int>, speciesKey <int>, basisOfRecord <chr>, institutionCode <chr>,
    #   collectionCode <chr>, catalogNumber <chr>, recordNumber <chr>, identifiedBy <chr>, dateIdentified <dttm>, license <chr>, rightsHolder <chr>, recordedBy <chr>, typeStatus <chr>, establishmentMeans <chr>, lastInterpreted <dttm>, mediaType <chr>, issue <chr>
…
