…
We will run `cpr_iter_sim()` on each dataset, starting with
`biodiverse_example`.

``` r
biod_iter_sim_res <- cpr_iter_sim(
  comm = biod_example$comm,
  null_model = "curveball",
  n_iterations = 10000,
  thin = 10
)

biod_iter_sim_res
```

    # A tibble: 1,000 × 2
       iteration similarity
           <int>      <dbl>
     1        10      0.992
     2        20      0.981
     3        30      0.975
     4        40      0.961
     5        50      0.956
     6        60      0.951
     7        70      0.947
     8        80      0.943
     9        90      0.934
    10       100      0.927
    # ℹ 990 more rows
…
