…
[GBIF has a
policy](https://www.gbif.org/faq?question=for-how-long-will-does-gbif-store-downloads)
of retaining datasets registered with a DOI for 6 months initially, and
as long as possible once published.

### Inspect the dataset

Let’s take a look at the dataset.

``` r
crep_records_raw
```

    # A tibble: 20,299 × 50
          gbifID datasetKey     occurrenceID kingdom phylum class order family genus
     *   <int64> <chr>          <chr>        <chr>   <chr>  <chr> <chr> <chr>  <chr>
     1 991749096 bf2a4bf0-5f31… http://data… Plantae Trach… Poly… Hyme… Hymen… Crep…
     2 991749040 bf2a4bf0-5f31… http://data… Plantae Trach… Poly… Hyme… Hymen… Crep…
     3 991748916 bf2a4bf0-5f31… http://data… Plantae Trach… Poly… Hyme… Hymen… Crep…
     4 991748915 bf2a4bf0-5f31… http://data… Plantae Trach… Poly… Hyme… Hymen… Crep…
     5 991748307 bf2a4bf0-5f31… http://data… Plantae Trach… Poly… Hyme… Hymen… Crep…
     6 991747993 bf2a4bf0-5f31… http://data… Plantae Trach… Poly… Hyme… Hymen… Crep…
     7 991747797 bf2a4bf0-5f31… http://data… Plantae Trach… Poly… Hyme… Hymen… Crep…
     8 991747708 bf2a4bf0-5f31… http://data… Plantae Trach… Poly… Hyme… Hymen… Crep…
     9 991747526 bf2a4bf0-5f31… http://data… Plantae Trach… Poly… Hyme… Hymen… Crep…
    10 991747268 bf2a4bf0-5f31… http://data… Plantae Trach… Poly… Hyme… Hymen… Crep…
    # ℹ 20,289 more rows
    # ℹ 41 more variables: species <chr>, infraspecificEpithet <chr>,
    #   taxonRank <chr>, scientificName <chr>, verbatimScientificName <chr>,
    #   verbatimScientificNameAuthorship <chr>, countryCode <chr>, locality <chr>,
    #   stateProvince <chr>, occurrenceStatus <chr>, individualCount <int>,
    #   publishingOrgKey <chr>, decimalLatitude <dbl>, decimalLongitude <dbl>,
    #   coordinateUncertaintyInMeters <dbl>, coordinatePrecision <dbl>, …
…
``` r
crep_records_no_missing <-
  crep_records_raw %>%
  # Also remove data that are missing species names
  mutate(species = na_if(species, "")) %>%
  filter(
    !is.na(species),
    !is.na(decimalLongitude),
    !is.na(decimalLatitude)
  )

crep_records_no_missing
```

    # A tibble: 9,572 × 50
          gbifID datasetKey     occurrenceID kingdom phylum class order family genus
         <int64> <chr>          <chr>        <chr>   <chr>  <chr> <chr> <chr>  <chr>
     1 991749096 bf2a4bf0-5f31… http://data… Plantae Trach… Poly… Hyme… Hymen… Crep…
     2 991749040 bf2a4bf0-5f31… http://data… Plantae Trach… Poly… Hyme… Hymen… Crep…
     3 991748916 bf2a4bf0-5f31… http://data… Plantae Trach… Poly… Hyme… Hymen… Crep…
     4 991748915 bf2a4bf0-5f31… http://data… Plantae Trach… Poly… Hyme… Hymen… Crep…
     5 991748307 bf2a4bf0-5f31… http://data… Plantae Trach… Poly… Hyme… Hymen… Crep…
     6 991747797 bf2a4bf0-5f31… http://data… Plantae Trach… Poly… Hyme… Hymen… Crep…
     7 991747708 bf2a4bf0-5f31… http://data… Plantae Trach… Poly… Hyme… Hymen… Crep…
     8 991747526 bf2a4bf0-5f31… http://data… Plantae Trach… Poly… Hyme… Hymen… Crep…
     9 991747268 bf2a4bf0-5f31… http://data… Plantae Trach… Poly… Hyme… Hymen… Crep…
    10 991746718 bf2a4bf0-5f31… http://data… Plantae Trach… Poly… Hyme… Hymen… Crep…
    # ℹ 9,562 more rows
    # ℹ 41 more variables: species <chr>, infraspecificEpithet <chr>,
    #   taxonRank <chr>, scientificName <chr>, verbatimScientificName <chr>,
    #   verbatimScientificNameAuthorship <chr>, countryCode <chr>, locality <chr>,
    #   stateProvince <chr>, occurrenceStatus <chr>, individualCount <int>,
    #   publishingOrgKey <chr>, decimalLatitude <dbl>, decimalLongitude <dbl>,
    #   coordinateUncertaintyInMeters <dbl>, coordinatePrecision <dbl>, …
…
``` r
crep_records_sea <-
  crep_records_no_missing %>%
  filter(!crep_records_sea_flagged)
```

We’d like to plot these, but there are too many to look at them in
detail on a global scale. Instead, let’s see what country had the most
and then zoom in there.

``` r
count(crep_records_sea, countryCode, sort = TRUE)
```

    # A tibble: 30 × 2
       countryCode     n
       <chr>       <int>
     1 JP            222
     2 PG             53
     3 TW             40
     4 AU             38
     5 ID             36
     6 PH             20
     7 US             18
     8 ZA             14
     9 PF             12
    10 CK             10
    # ℹ 20 more rows
…
